0 -0 0
0.71109 0.52107 0.47206
0.826 -0.104 0.554
0.23604 -0.80915 0.5381
0.66773 0.71271 0.21491
-0.024995 -0.9338 0.35692
-0.52923 0.78034 0.33314
-0.76884 -0.15697 0.61987
0.81113 0.22203 0.54108
0 -0 0
0.2569 0.58576 0.76869
-0.78381 0.16796 0.59786
0.9225 -0.26014 0.28516
0.15601 0.83604 0.52602
-0.063005 0.69105 0.72005
-0.7029 0.50793 0.49793
0.46988 -0.59085 0.65583
-0.86508 -0.37603 0.33203
-0.37903 -0.89208 -0.24602
0 -0 0
0.34893 -0.065987 0.93482
0.046983 0.96764 0.24791
-0.20002 0.86508 0.46004
-0.647 -0.682 0.341
0.035992 0.055988 0.99778
0.25591 0.96465 -0.062977
-0.19801 -0.49501 0.84602
0.5552 -0.74027 0.37914
0.61569 0.082958 0.78361
0 -0 0
-0.31309 0.93827 0.14704
0.58012 -0.81417 0.024005
0.54729 0.41222 0.72839
0.33594 -0.37994 0.86185
-0.35678 -0.85746 0.37077
-0.55676 0.0079965 0.83064
0.73921 -0.45213 0.49914
0.61213 -0.25605 0.74816
-0.67292 -0.46295 0.57693
0 -0 0
0.025007 0.38811 0.92127
-0.78013 0.5951 -0.19303
0.95972 0.077977 0.26992
0.11799 -0.60695 0.78593
-0.99667 0.074975 0.031989
-0.27991 0.17094 0.94469
-0.92149 0.38821 0.012006
-0.41598 -0.65097 0.63497
0.88506 0.40803 0.22402
0 -0 0
0.81379 0.57785 -0.061984
-0.93718 -0.044008 0.34607
-0.967 -0.25 0.049
-0.42401 0.66202 0.61802
-0.55731 0.34019 0.75742
-0.32711 0.9173 -0.22707
0.55276 0.83064 -0.066971
-0.27406 0.4751 0.83617
0.043006 -0.28304 0.95814
0 -0 0
-0.11395 -0.77167 0.62573
-0.76667 0.61573 0.18192
-0.25608 -0.15405 0.9543
0.45876 0.71562 0.52672
0.066027 -0.99641 0.053022
-0.49095 -0.32596 0.80791
0.32397 0.25898 0.90993
-0.90024 0.29408 0.32108
